<svg xmlns="http://www.w3.org/2000/svg" width="24" height="24" viewBox="0 0 24 24">
    <g fill="#DA272C" fill-rule="nonzero">
        <path d="M15.671 1.5L19.5 5.328V19.5a3 3 0 0 1-3 3H6.75a3 3 0 0 1-3-3v-15a3 3 0 0 1 3-3h8.921zm-.62 1.5H6.75a1.5 1.5 0 0 0-1.5 1.5v15a1.5 1.5 0 0 0 1.5 1.5h9.75a1.5 1.5 0 0 0 1.5-1.5V5.95L15.05 3z"/>
        <path d="M7.5 7.5h3.75V6H7.5zM7.5 11.25h8.25v-1.5H7.5zM7.5 15h8.25v-1.5H7.5zM7.5 18.75h8.25v-1.5H7.5zM15.75 5.25v-3h-1.5v4.5h4.291v-1.5z"/>
    </g>
</svg>
