<svg xmlns="http://www.w3.org/2000/svg" width="24" height="24" fill="none" viewBox="0 0 24 24">
    <path fill="#595959" fill-rule="evenodd" d="M21.75 20.25H2.25C1.01 20.25 0 19.241 0 18V6c0-1.24 1.01-2.25 2.25-2.25h19.5C22.99 3.75 24 4.76 24 6v12c0 1.241-1.01 2.25-2.25 2.25zm-19.5-1.5h19.5c.414 0 .75-.336.75-.75V9.75h-21V18c0 .414.336.75.75.75zM22.5 6c0-.414-.336-.75-.75-.75H2.25c-.414 0-.75.336-.75.75v1.5h21V6z" clip-rule="evenodd"/>
    <mask id="0ysiaostna" width="24" height="18" x="0" y="3" maskUnits="userSpaceOnUse">
        <path fill="#fff" fill-rule="evenodd" d="M21.75 20.25H2.25C1.01 20.25 0 19.241 0 18V6c0-1.24 1.01-2.25 2.25-2.25h19.5C22.99 3.75 24 4.76 24 6v12c0 1.241-1.01 2.25-2.25 2.25zm-19.5-1.5h19.5c.414 0 .75-.336.75-.75V9.75h-21V18c0 .414.336.75.75.75zM22.5 6c0-.414-.336-.75-.75-.75H2.25c-.414 0-.75.336-.75.75v1.5h21V6z" clip-rule="evenodd"/>
    </mask>
</svg>
